{"errorCode":null,"error":"","data":{"numberReturned":129,"totalHits":129,
"firstRecord":1,"lastRecord":129,"nextRecord":129,"results":[{"acquisitionDate":
"2017-06-19", "startTime":"2017-06-19","endTime":"2017-06-19",
"spatialFootprint":{"type":"Polygon","coordinates":[[[103.32804,59.51604],
[106.52706,58.97792],[107.71696,60.63425],[104.36437,61.19025],
[103.32804,59.51604]]]},"sceneBounds":"103.32804,58.97792,107.71696,61.19025", 
"browseUrl":"https:\/\/earthexplorer.usgs.gov\/browse\/landsat_8_c1\/2017\/136
\/018\/LC08_L1TP_136018_20170619_20170629_01_T1.jpg", "dataAccessUrl":"https:
\/\/earthexplorer.usgs.gov\/order\/process?dataset_name=LANDSAT_8_C1&ordered=
LC81360182017170LGN00&node=INVSVC","downloadUrl":"https:\/\/earthexplorer.usgs.
gov\/download\/external\/options\/LANDSAT_8_C1\/LC81360182017170LGN00\/INVSVC\/", 
"entityId":"LC81360182017170LGN00","displayId":"LC08_L1TP_136018_20170619_2017
0629_01_T1", "metadataUrl":"https:\/\/earthexplorer.usgs.gov\/metadata\/xml\/128
64\/LC81360182017170LGN00\/", "fgdcMetadataUrl":"https:\/\/earthexplorer.usgs.
gov\/fgdc\/12864\/LC81360182017170LGN00\/save_xml", "modifiedDate":"2017-06-29",
"orderUrl":"https:\/\/earthexplorer.usgs.gov\/order\/process?dataset_name
=LANDSAT_8_C1&ordered=LC81360182017170LGN00&node=INVSVC","bulkOrdered":false,
"ordered":false,"summary":"Entity ID: LC08_L1TP_136018_20170619_20170629_01_T1, 
Acquisition Date:19-JUN-17, Path: 136, Row: 18"},{"acquisitionDate":"2017-06-19",
"startTime":"2017-06-19","endTime":"2017-06-19","spatialFootprint":{"type":
"Polygon","coordinates":[[[102.53065,58.11624],[105.61408,57.59423],
[106.72016,59.25797],[103.49504,59.79573],[102.53065,58.11624]]]},"sceneBounds":
"102.53065,57.59423,106.72016,59.79573","browseUrl":"https:\/\/earthexplorer.
usgs.gov\/browse\/landsat_8_c1\/2017\/136\/019\/LC08_L1TP_136019_20170619_201706
29_01_T1.jpg","dataAccessUrl":"https:\/\/earthexplorer.usgs.gov\/order\/process?
dataset_name=LANDSAT_8_C1&ordered=LC81360192017170LGN00&node=INVSVC",
"downloadUrl":"https:\/\/earthexplorer.usgs.gov\/download\/external\/options\/
LANDSAT_8_C1\/LC81360192017170LGN00\/INVSVC\/","entityId":"LC81360192017170LGN
00","displayId":"LC08_L1TP_136019_20170619_20170629_01_T1","metadataUrl":
"https:\/\/earthexplorer.usgs.gov\/metadata\/xml\/12864\/LC81360192017170LGN00\/",
"fgdcMetadataUrl":"https:\/\/earthexplorer.usgs.gov\/fgdc\/12864\/LC8136019201717
0LGN00\/save_xml","modifiedDate":"2017-06-29","orderUrl":"https:\/\/earthexplorer.
usgs.gov\/order\/process?dataset_name=LANDSAT_8_C1&ordered=LC81360192017170LGN00&
node=INVSVC","bulkOrdered":false,"ordered":false,"summary":"Entity ID: LC08_L1TP_
136019_20170619_20170629_01_T1, Acquisition Date: 19-JUN-17, Path: 136, Row: 19"},
{"acquisitionDate":"2017-06-19","startTime":"2017-06-19","endTime":"2017-06-19",
"spatialFootprint":{"type":"Polygon","coordinates":[[[101.78499,56.7123],
[104.76114,56.20491],[105.79357,57.87531],[102.68655,58.39654],
[101.78499,56.7123]]]},"sceneBounds":"101.78499,56.20491,105.79357,58.39654",
"browseUrl":"https:\/\/earthexplorer.usgs.gov\/browse\/landsat_8_c1\/2017\/136\/02
0\/LC08_L1TP_136020_20170619_20170629_01_T1.jpg","dataAccessUrl":"https:\/\/earthe
xplorer.usgs.gov\/order\/process?dataset_name=LANDSAT_8_C1&ordered=LC8136020201717
0LGN00&node=INVSVC","downloadUrl":"https:\/\/earthexplorer.usgs.gov\/download\/ext
ernal\/options\/LANDSAT_8_C1\/LC81360202017170LGN00\/INVSVC\/","entityId":"LC81360
202017170LGN00","displayId":"LC08_L1TP_136020_20170619_20170629_01_T1",
"metadataUrl":"https:\/\/earthexplorer.usgs.gov\/metadata\/xml\/12864\/LC813602020
17170LGN00\/","fgdcMetadataUrl":"https:\/\/earthexplorer.usgs.gov\/fgdc\/12864\/LC
81360202017170LGN00\/save_xml","modifiedDate":"2017-06-29","orderUrl":"https:\/\/e
arthexplorer.usgs.gov\/order\/process?dataset_name=LANDSAT_8_C1&ordered=LC81360202
017170LGN00&node=INVSVC","bulkOrdered":false,"ordered":false,"summary":"Entity ID: 
LC08_L1TP_136020_20170619_20170629_01_T1, Acquisition Date: 19-JUN-17, Path: 136, 
Row: 20"},{"acquisitionDate":"2017-06-21","startTime":"2017-06-21","endTime":
"2017-06-21","spatialFootprint":{"type":"Polygon","coordinates":
[[[106.41994,59.51637],[109.61898,58.9782],[110.80893,60.63456],[107.45632,61.1906],
[106.41994,59.51637]]]},"sceneBounds":"106.41994,58.9782,110.80893,61.1906",
"browseUrl":"https:\/\/earthexplorer.usgs.gov\/browse\/landsat_8_c1\/2017\/134\/01
8\/LC08_L1TP_134018_20170621_20170630_01_T1.jpg","dataAccessUrl":"https:\/\/earthe
xplorer.usgs.gov\/order\/process?dataset_name=LANDSAT_8_C1&ordered=LC8134018201717
2LGN00&node=INVSVC","downloadUrl":"https:\/\/earthexplorer.usgs.gov\/download\/ext
ernal\/options\/LANDSAT_8_C1\/LC81340182017172LGN00\/INVSVC\/","entityId":"LC81340
182017172LGN00","displayId":"LC08_L1TP_134018_20170621_20170630_01_T1",
"metadataUrl":"https:\/\/earthexplorer.usgs.gov\/metadata\/xml\/12864\/LC813401820
17172LGN00\/","fgdcMetadataUrl":"https:\/\/earthexplorer.usgs.gov\/fgdc\/12864\/LC
81340182017172LGN00\/save_xml","modifiedDate":"2017-06-30","orderUrl":"https:\/\/e
arthexplorer.usgs.gov\/order\/process?dataset_name=LANDSAT_8_C1&ordered=LC81340182
017172LGN00&node=INVSVC","bulkOrdered":false,"ordered":false,"summary":"Entity ID:
LC08_L1TP_134018_20170621_20170630_01_T1, Acquisition Date: 21-JUN-17, Path: 134, 
Row: 18"},{"acquisitionDate":"2017-06-21","startTime":"2017-06-21","endTime":"2017
-06-21","spatialFootprint":{"type":"Polygon","coordinates":[[[105.62237,58.11633],
[108.70571,57.59429],[109.81189,59.25803],[106.58686,59.79582],
[105.62237,58.11633]]]},"sceneBounds":"105.62237,57.59429,109.81189,59.79582",
"browseUrl":"https:\/\/earthexplorer.usgs.gov\/browse\/landsat_8_c1\/2017\/134\/019
\/LC08_L1TP_134019_20170621_20170630_01_T1.jpg","dataAccessUrl":"https:\/\/earthexp
lorer.usgs.gov\/order\/process?dataset_name=LANDSAT_8_C1&ordered=LC81340192017172LG
N00&node=INVSVC","downloadUrl":"https:\/\/earthexplorer.usgs.gov\/download\/externa
l\/options\/LANDSAT_8_C1\/LC81340192017172LGN00\/INVSVC\/","entityId":"LC8134019201
7172LGN00","displayId":"LC08_L1TP_134019_20170621_20170630_01_T1","metadataUrl":"ht
tps:\/\/earthexplorer.usgs.gov\/metadata\/xml\/12864\/LC81340192017172LGN00\/",
"fgdcMetadataUrl":"https:\/\/earthexplorer.usgs.gov\/fgdc\/12864\/LC81340192017172L
GN00\/save_xml","modifiedDate":"2017-06-30","orderUrl":"https:\/\/earthexplorer.usg
s.gov\/order\/process?dataset_name=LANDSAT_8_C1&ordered=LC81340192017172LGN00&node=
INVSVC","bulkOrdered":false,"ordered":false,"summary":"Entity ID: LC08_L1TP_134019_
20170621_20170630_01_T1, Acquisition Date: 21-JUN-17, Path: 134, Row: 19"},
{"acquisitionDate":"2017-06-21","startTime":"2017-06-21","endTime":"2017-06-21",
"spatialFootprint":{"type":"Polygon","coordinates":[[[104.87648,56.71215],
[107.85262,56.20472],[108.88511,57.87509],[105.77811,58.39638],
[104.87648,56.71215]]]},"sceneBounds":"104.87648,56.20472,108.88511,58.39638",
"browseUrl":"https:\/\/earthexplorer.usgs.gov\/browse\/landsat_8_c1\/2017\/134\/020
\/LC08_L1TP_134020_20170621_20170630_01_T1.jpg","dataAccessUrl":"https:\/\/earthexp
lorer.usgs.gov\/order\/process?dataset_name=LANDSAT_8_C1&ordered=LC81340202017172LG
N00&node=INVSVC","downloadUrl":"https:\/\/earthexplorer.usgs.gov\/download\/externa
l\/options\/LANDSAT_8_C1\/LC81340202017172LGN00\/INVSVC\/","entityId":"LC8134020201
7172LGN00","displayId":"LC08_L1TP_134020_20170621_20170630_01_T1","metadataUrl":
"https:\/\/earthexplorer.usgs.gov\/metadata\/xml\/12864\/LC81340202017172LGN00\/",
"fgdcMetadataUrl":"https:\/\/earthexplorer.usgs.gov\/fgdc\/12864\/LC81340202017172L
GN00\/save_xml","modifiedDate":"2017-06-30","orderUrl":"https:\/\/earthexplorer.usg
s.gov\/order\/process?dataset_name=LANDSAT_8_C1&ordered=LC81340202017172LGN00&node=
INVSVC","bulkOrdered":false,"ordered":false,"summary":"Entity ID: LC08_L1TP_134020_
20170621_20170630_01_T1, Acquisition Date: 21-JUN-17, Path: 134, Row: 20"},
{"acquisitionDate":"2017-06-21","startTime":"2017-06-21","endTime":"2017-06-21",
"spatialFootprint":{"type":"Polygon","coordinates":[[[104.17631,55.30483],
[107.05317,54.81067],[108.02049,56.48695],[105.02262,56.99329],
[104.17631,55.30483]]]},"sceneBounds":"104.17631,54.81067,108.02049,56.99329",
"browseUrl":"https:\/\/earthexplorer.usgs.gov\/browse\/landsat_8_c1\/2017\/134\/021
\/LC08_L1TP_134021_20170621_20170630_01_T1.jpg","dataAccessUrl":"https:\/\/earthexp
lorer.usgs.gov\/order\/process?dataset_name=LANDSAT_8_C1&ordered=LC81340212017172LG
N00&node=INVSVC","downloadUrl":"https:\/\/earthexplorer.usgs.gov\/download\/externa
l\/options\/LANDSAT_8_C1\/LC81340212017172LGN00\/INVSVC\/","entityId":"LC8134021201
7172LGN00","displayId":"LC08_L1TP_134021_20170621_20170630_01_T1","metadataUrl":
"https:\/\/earthexplorer.usgs.gov\/metadata\/xml\/12864\/LC81340212017172LGN00\/",
"fgdcMetadataUrl":"https:\/\/earthexplorer.usgs.gov\/fgdc\/12864\/LC81340212017172L
GN00\/save_xml","modifiedDate":"2017-06-30","orderUrl":"https:\/\/earthexplorer.usg
s.gov\/order\/process?dataset_name=LANDSAT_8_C1&ordered=LC81340212017172LGN00&node=
INVSVC","bulkOrdered":false,"ordered":false,"summary":"Entity ID: LC08_L1TP_134021_
20170621_20170630_01_T1, Acquisition Date: 21-JUN-17, Path: 134, Row: 21"},
{"acquisitionDate":"2017-06-30","startTime":"2017-06-30","endTime":"2017-06-30",
"spatialFootprint":{"type":"Polygon","coordinates":[[[107.17048,58.11588],
[110.25362,57.59397],[111.35963,59.25778],[108.13482,59.79543],
[107.17048,58.11588]]]},"sceneBounds":"107.17048,57.59397,111.35963,59.79543",
"browseUrl":"https:\/\/earthexplorer.usgs.gov\/browse\/landsat_8_c1\/2017\/133\/019
\/LC08_L1TP_133019_20170630_20170714_01_T1.jpg","dataAccessUrl":"https:\/\/earthexp
lorer.usgs.gov\/order\/process?dataset_name=LANDSAT_8_C1&ordered=LC81330192017181LG
N00&node=INVSVC","downloadUrl":"https:\/\/earthexplorer.usgs.gov\/download\/externa
l\/options\/LANDSAT_8_C1\/LC81330192017181LGN00\/INVSVC\/","entityId":"LC8133019201
7181LGN00","displayId":"LC08_L1TP_133019_20170630_20170714_01_T1","metadataUrl":
"https:\/\/earthexplorer.usgs.gov\/metadata\/xml\/12864\/LC81330192017181LGN00\/",
"fgdcMetadataUrl":"https:\/\/earthexplorer.usgs.gov\/fgdc\/12864\/LC81330192017181L
GN00\/save_xml","modifiedDate":"2017-07-14","orderUrl":"https:\/\/earthexplorer.usg
s.gov\/order\/process?dataset_name=LANDSAT_8_C1&ordered=LC81330192017181LGN00&node=
INVSVC","bulkOrdered":false,"ordered":false,"summary":"Entity ID: LC08_L1TP_133019_
20170630_20170714_01_T1, Acquisition Date: 30-JUN-17, Path: 133, Row: 19"},
{"acquisitionDate":"2017-06-30","startTime":"2017-06-30","endTime":"2017-06-30",
"spatialFootprint":{"type":"Polygon","coordinates":[[[106.42494,56.71191],
[109.40082,56.20462],[110.4331,57.87507],[107.32636,58.3962],[106.42494,56.71191]]]},
"sceneBounds":"106.42494,56.20462,110.4331,58.3962","browseUrl":"https:\/\/earthexp
lorer.usgs.gov\/browse\/landsat_8_c1\/2017\/133\/020\/LC08_L1TP_133020_20170630_201
70714_01_T1.jpg","dataAccessUrl":"https:\/\/earthexplorer.usgs.gov\/order\/process?
dataset_name=LANDSAT_8_C1&ordered=LC81330202017181LGN00&node=INVSVC","downloadUrl":
"https:\/\/earthexplorer.usgs.gov\/download\/external\/options\/LANDSAT_8_C1\/LC813
30202017181LGN00\/INVSVC\/","entityId":"LC81330202017181LGN00","displayId":
"LC08_L1TP_133020_20170630_20170714_01_T1","metadataUrl":"https:\/\/earthexplorer.u
sgs.gov\/metadata\/xml\/12864\/LC81330202017181LGN00\/","fgdcMetadataUrl":"https:\/
\/earthexplorer.usgs.gov\/fgdc\/12864\/LC81330202017181LGN00\/save_xml",
"modifiedDate":"2017-07-14","orderUrl":"https:\/\/earthexplorer.usgs.gov\/order\/pr
ocess?dataset_name=LANDSAT_8_C1&ordered=LC81330202017181LGN00&node=INVSVC",
"bulkOrdered":false,"ordered":false,"summary":"Entity ID: LC08_L1TP_133020_20170630
_20170714_01_T1, Acquisition Date: 30-JUN-17, Path: 133, Row: 20"},
{"acquisitionDate":"2017-07-23","startTime":"2017-07-23","endTime":"2017-07-23",
"spatialFootprint":{"type":"Polygon","coordinates":[[[106.42775,59.51599],
[109.62666,58.97795],[110.81642,60.63432],[107.46395,61.19023],
[106.42775,59.51599]]]},"sceneBounds":"106.42775,58.97795,110.81642,61.19023",
"browseUrl":"https:\/\/earthexplorer.usgs.gov\/browse\/landsat_8_c1\/2017\/134\/018
\/LC08_L1TP_134018_20170723_20170729_01_T1.jpg","dataAccessUrl":"https:\/\/earthexp
lorer.usgs.gov\/order\/process?dataset_name=LANDSAT_8_C1&ordered=LC81340182017204LG
N00&node=INVSVC","downloadUrl":"https:\/\/earthexplorer.usgs.gov\/download\/externa
l\/options\/LANDSAT_8_C1\/LC81340182017204LGN00\/INVSVC\/","entityId":"LC8134018201
7204LGN00","displayId":"LC08_L1TP_134018_20170723_20170729_01_T1","metadataUrl":"ht
tps:\/\/earthexplorer.usgs.gov\/metadata\/xml\/12864\/LC81340182017204LGN00\/",
"fgdcMetadataUrl":"https:\/\/earthexplorer.usgs.gov\/fgdc\/12864\/LC81340182017204L
GN00\/save_xml","modifiedDate":"2017-07-28","orderUrl":"https:\/\/earthexplorer.usg
s.gov\/order\/process?dataset_name=LANDSAT_8_C1&ordered=LC81340182017204LGN00&node=
INVSVC","bulkOrdered":false,"ordered":false,"summary":"Entity ID: LC08_L1TP_134018_
20170723_20170729_01_T1, Acquisition Date: 23-JUL-17, Path: 134, Row: 18"},
{"acquisitionDate":"2017-07-23","startTime":"2017-07-23","endTime":"2017-07-23",
"spatialFootprint":{"type":"Polygon","coordinates":[[[105.63043,58.11615],
[108.71369,57.59422],[109.81969,59.258],[106.59477,59.79567],[105.63043,58.11615]]]},
"sceneBounds":"105.63043,57.59422,109.81969,59.79567","browseUrl":"https:\/\/earthe
xplorer.usgs.gov\/browse\/landsat_8_c1\/2017\/134\/019\/LC08_L1TP_134019_20170723_2
0170729_01_T1.jpg","dataAccessUrl":"https:\/\/earthexplorer.usgs.gov\/order\/proces
s?dataset_name=LANDSAT_8_C1&ordered=LC81340192017204LGN00&node=INVSVC","downloadUrl":
"https:\/\/earthexplorer.usgs.gov\/download\/external\/options\/LANDSAT_8_C1\/LC813
40192017204LGN00\/INVSVC\/","entityId":"LC81340192017204LGN00","displayId":
"LC08_L1TP_134019_20170723_20170729_01_T1","metadataUrl":"https:\/\/earthexplorer.u
sgs.gov\/metadata\/xml\/12864\/LC81340192017204LGN00\/","fgdcMetadataUrl":"https:\/
\/earthexplorer.usgs.gov\/fgdc\/12864\/LC81340192017204LGN00\/save_xml",
"modifiedDate":"2017-07-28","orderUrl":"https:\/\/earthexplorer.usgs.gov\/order\/pr
ocess?dataset_name=LANDSAT_8_C1&ordered=LC81340192017204LGN00&node=INVSVC",
"bulkOrdered":false,"ordered":false,"summary":"Entity ID: LC08_L1TP_134019_20170723
_20170729_01_T1, Acquisition Date: 23-JUL-17, Path: 134, Row: 19"},
{"acquisitionDate":"2017-07-23","startTime":"2017-07-23","endTime":"2017-07-23",
"spatialFootprint":{"type":"Polygon","coordinates":[[[104.88472,56.71192],
[107.86079,56.2046],[108.89306,57.87506],[105.78615,58.39623],[104.88472,56.71192]]]},
"sceneBounds":"104.88472,56.2046,108.89306,58.39623","browseUrl":"https:\/\/earthex
plorer.usgs.gov\/browse\/landsat_8_c1\/2017\/134\/020\/LC08_L1TP_134020_20170723_20
170729_01_T1.jpg","dataAccessUrl":"https:\/\/earthexplorer.usgs.gov\/order\/process?
dataset_name=LANDSAT_8_C1&ordered=LC81340202017204LGN00&node=INVSVC","downloadUrl":
"https:\/\/earthexplorer.usgs.gov\/download\/external\/options\/LANDSAT_8_C1\/LC813
40202017204LGN00\/INVSVC\/","entityId":"LC81340202017204LGN00","displayId":
"LC08_L1TP_134020_20170723_20170729_01_T1","metadataUrl":"https:\/\/earthexplorer.u
sgs.gov\/metadata\/xml\/12864\/LC81340202017204LGN00\/","fgdcMetadataUrl":"https:\/
\/earthexplorer.usgs.gov\/fgdc\/12864\/LC81340202017204LGN00\/save_xml",
"modifiedDate":"2017-07-28","orderUrl":"https:\/\/earthexplorer.usgs.gov\/order\/pr
ocess?dataset_name=LANDSAT_8_C1&ordered=LC81340202017204LGN00&node=INVSVC",
"bulkOrdered":false,"ordered":false,"summary":"Entity ID: LC08_L1TP_134020_20170723
_20170729_01_T1, Acquisition Date: 23-JUL-17, Path: 134, Row: 20"},
{"acquisitionDate":"2017-07-23","startTime":"2017-07-23","endTime":"2017-07-23",
"spatialFootprint":{"type":"Polygon","coordinates":[[[104.18492,55.30508],
[107.06175,54.81101],[108.02898,56.48734],[105.03116,56.99358],[104.18492,55.30508]]]},
"sceneBounds":"104.18492,54.81101,108.02898,56.99358","browseUrl":"https:\/\/earthe
xplorer.usgs.gov\/browse\/landsat_8_c1\/2017\/134\/021\/LC08_L1TP_134021_20170723_2
0170729_01_T1.jpg","dataAccessUrl":"https:\/\/earthexplorer.usgs.gov\/order\/proces
s?dataset_name=LANDSAT_8_C1&ordered=LC81340212017204LGN00&node=INVSVC","downloadUrl":
"https:\/\/earthexplorer.usgs.gov\/download\/external\/options\/LANDSAT_8_C1\/LC813
40212017204LGN00\/INVSVC\/","entityId":"LC81340212017204LGN00","displayId":
"LC08_L1TP_134021_20170723_20170729_01_T1","metadataUrl":"https:\/\/earthexplorer.u
sgs.gov\/metadata\/xml\/12864\/LC81340212017204LGN00\/","fgdcMetadataUrl":"https:\/
\/earthexplorer.usgs.gov\/fgdc\/12864\/LC81340212017204LGN00\/save_xml",
"modifiedDate":"2017-07-28","orderUrl":"https:\/\/earthexplorer.usgs.gov\/order\/pr
ocess?dataset_name=LANDSAT_8_C1&ordered=LC81340212017204LGN00&node=INVSVC",
"bulkOrdered":false,"ordered":false,"summary":"Entity ID: LC08_L1TP_134021_20170723_
20170729_01_T1, Acquisition Date: 23-JUL-17, Path: 134, Row: 21"},
{"acquisitionDate":"2017-07-30","startTime":"2017-07-30","endTime":"2017-07-30",
"spatialFootprint":{"type":"Polygon","coordinates":[[[104.87616,59.51606],
[108.07517,58.97812],[109.26471,60.63454],[105.91213,61.19034],[104.87616,59.51606]]]},
"sceneBounds":"104.87616,58.97812,109.26471,61.19034","browseUrl":"https:\/\/
earthexplorer.usgs.gov\/browse\/landsat_8_c1\/2017\/135\/018\/
LC08_L1TP_135018_20170730_20180524_01_T1.jpg","dataAccessUrl":"https:\/\/
earthexplorer.usgs.gov\/order\/process?dataset_name=LANDSAT_8_C1&
ordered=LC81350182017211LGN01&node=INVSVC","downloadUrl":"https:\/\/earthexplorer.
usgs.gov\/download\/external\/options\/LANDSAT_8_C1\/LC81350182017211LGN01\/INVSVC\/",
"entityId":"LC81350182017211LGN01","displayId":"LC08_L1TP_135018_20170730_20180524_0
1_T1","metadataUrl":"https:\/\/earthexplorer.usgs.gov\/metadata\/xml\/12864\/
LC81350182017211LGN01\/","fgdcMetadataUrl":"https:\/\/earthexplorer.usgs.gov\/fgdc\/
12864\/LC81350182017211LGN01\/save_xml","modifiedDate":"2018-05-24","orderUrl":
"https:\/\/earthexplorer.usgs.gov\/order\/process?dataset_name=LANDSAT_8_C1&
ordered=LC81350182017211LGN01&node=INVSVC","bulkOrdered":false,"ordered":false,
"summary":"Entity ID: LC08_L1TP_135018_20170730_20180524_01_T1, Acquisition Date: 
30-JUL-17, Path: 135, Row: 18"},{"acquisitionDate":"2017-08-06","startTime":
"2017-08-06","endTime":"2017-08-06","spatialFootprint":{"type":"Polygon",
"coordinates":[[[103.3294,59.51604],[106.52852,58.97804],[107.71811,60.63441],
[104.36544,61.19028],[103.3294,59.51604]]]},"sceneBounds":"103.3294,58.97804,
107.71811,61.19028","browseUrl":"https:\/\/earthexplorer.usgs.gov\/browse\/
landsat_8_c1\/2017\/136\/018\/LC08_L1TP_136018_20170806_20170813_01_T1.jpg",
"dataAccessUrl":"https:\/\/earthexplorer.usgs.gov\/order\/process?dataset_name=
LANDSAT_8_C1&ordered=LC81360182017218LGN00&node=INVSVC","downloadUrl":"https:\/\/
earthexplorer.usgs.gov\/download\/external\/options\/LANDSAT_8_C1\/LC81360182017
218LGN00\/INVSVC\/","entityId":"LC81360182017218LGN00","displayId":
"LC08_L1TP_136018_20170806_20170813_01_T1","metadataUrl":"https:\/\/earthexplorer.us
gs.gov\/metadata\/xml\/12864\/LC81360182017218LGN00\/","fgdcMetadataUrl":"https:\/\/
earthexplorer.usgs.gov\/fgdc\/12864\/LC81360182017218LGN00\/save_xml",
"modifiedDate":"2017-08-12","orderUrl":"https:\/\/earthexplorer.usgs.gov\/order\/proc
ess?dataset_name=LANDSAT_8_C1&ordered=LC81360182017218LGN00&node=INVSVC","bulkOrdered":
false,"ordered":false,"summary":"Entity ID: LC08_L1TP_136018_20170806_20170813_01_T1,
Acquisition Date: 06-AUG-17, Path: 136, Row: 18"},{"acquisitionDate":"2017-08-06",
"startTime":"2017-08-06","endTime":"2017-08-06","spatialFootprint":{"type":"Polygon",
"coordinates":[[[102.532,58.11594],[105.61551,57.59402],[106.72136,59.25784],[103.49618,
59.79547],[102.532,58.11594]]]},"sceneBounds":"102.532,57.59402,106.72136,59.79547",
"browseUrl":"https:\/\/earthexplorer.usgs.gov\/browse\/landsat_8_c1\/2017\/136\/019\/
LC08_L1TP_136019_20170806_20170813_01_T1.jpg","dataAccessUrl":"https:\/\/
earthexplorer.usgs.gov\/order\/process?dataset_name=LANDSAT_8_C1&
ordered=LC81360192017218LGN00&node=INVSVC","downloadUrl":"https:\/\/earthexplorer.us
gs.gov\/download\/external\/options\/LANDSAT_8_C1\/LC81360192017218LGN00\/INVSVC\/",
"entityId":"LC81360192017218LGN00","displayId":"LC08_L1TP_136019_20170806_20170813_0
1_T1","metadataUrl":"https:\/\/earthexplorer.usgs.gov\/metadata\/xml\/12864\/LC81360
192017218LGN00\/","fgdcMetadataUrl":"https:\/\/earthexplorer.usgs.gov\/fgdc\/12864\/
LC81360192017218LGN00\/save_xml","modifiedDate":"2017-08-12","orderUrl":"https:\/\/
earthexplorer.usgs.gov\/order\/process?dataset_name=LANDSAT_8_C1&
ordered=LC81360192017218LGN00&node=INVSVC","bulkOrdered":false,"ordered":false,
"summary":"Entity ID: LC08_L1TP_136019_20170806_20170813_01_T1, Acquisition Date: 
06-AUG-17, Path: 136, Row: 19"},{"acquisitionDate":"2017-08-10","startTime":
"2017-08-10","endTime":"2017-08-10","spatialFootprint":{"type":"Polygon",
"coordinates":[[[108.70981,58.11608],[111.79351,57.5942],[112.89921,59.25802],
[109.67383,59.79563],[108.70981,58.11608]]]},"sceneBounds":"108.70981,57.5942,
112.89921,59.79563","browseUrl":"https:\/\/earthexplorer.usgs.gov\/browse\/landsat_8
_c1\/2017\/132\/019\/LC08_L1TP_132019_20170810_20170824_01_T1.jpg","dataAccessUrl":
"https:\/\/earthexplorer.usgs.gov\/order\/process?dataset_name=LANDSAT_8_C1&
ordered=LC81320192017222LGN00&node=INVSVC","downloadUrl":"https:\/\/earthexplorer.us
gs.gov\/download\/external\/options\/LANDSAT_8_C1\/LC81320192017222LGN00\/INVSVC\/",
"entityId":"LC81320192017222LGN00","displayId":"LC08_L1TP_132019_20170810_20170824_0
1_T1","metadataUrl":"https:\/\/earthexplorer.usgs.gov\/metadata\/xml\/12864\/LC81320
192017222LGN00\/","fgdcMetadataUrl":"https:\/\/earthexplorer.usgs.gov\/fgdc\/12864\/
LC81320192017222LGN00\/save_xml","modifiedDate":"2017-08-24","orderUrl":"https:\/\/
earthexplorer.usgs.gov\/order\/process?dataset_name=LANDSAT_8_C1&
ordered=LC81320192017222LGN00&node=INVSVC","bulkOrdered":false,"ordered":false,
"summary":"Entity ID: LC08_L1TP_132019_20170810_20170824_01_T1, Acquisition Date: 
10-AUG-17, Path: 132, Row: 19"},{"acquisitionDate":"2017-08-13","startTime":
"2017-08-13","endTime":"2017-08-13","spatialFootprint":{"type":"Polygon",
"coordinates":[[[101.77973,59.51607],[104.97902,58.97817],[106.16837,60.63456],
[102.81551,61.19032],[101.77973,59.51607]]]},"sceneBounds":"101.77973,58.97817,
106.16837,61.19032","browseUrl":"https:\/\/earthexplorer.usgs.gov\/browse\/landsat_8
_c1\/2017\/137\/018\/LC08_L1TP_137018_20170813_20170824_01_T1.jpg","dataAccessUrl":
"https:\/\/earthexplorer.usgs.gov\/order\/process?dataset_name=LANDSAT_8_C1&
ordered=LC81370182017225LGN00&node=INVSVC","downloadUrl":"https:\/\/earthexplorer.us
gs.gov\/download\/external\/options\/LANDSAT_8_C1\/LC81370182017225LGN00\/INVSVC\/",
"entityId":"LC81370182017225LGN00","displayId":"LC08_L1TP_137018_20170813_20170824_
01_T1","metadataUrl":"https:\/\/earthexplorer.usgs.gov\/metadata\/xml\/12864\/LC8137
0182017225LGN00\/","fgdcMetadataUrl":"https:\/\/earthexplorer.usgs.gov\/fgdc\/12864\/
LC81370182017225LGN00\/save_xml","modifiedDate":"2017-08-24","orderUrl":"https:\/\/
earthexplorer.usgs.gov\/order\/process?dataset_name=LANDSAT_8_C1&
ordered=LC81370182017225LGN00&node=INVSVC","bulkOrdered":false,"ordered":false,
"summary":"Entity ID: LC08_L1TP_137018_20170813_20170824_01_T1, Acquisition Date: 
13-AUG-17, Path: 137, Row: 18"},{"acquisitionDate":"2017-09-11","startTime":
"2017-09-11", ...}